%YAML 1.1
%TAG !u! tag:unity3d.com,2011:
--- !u!1045 &1
EditorBuildSettings:
  m_ObjectHideFlags: 0
  serializedVersion: 2
  m_Scenes:
  - enabled: 1
    path: Assets/CrazySDK/CrazyLogo/CrazyLogo.unity
    guid: 54237a42c0e098a4d96d788ed66fa9aa
  - enabled: 1
    path: Assets/Scenes/LevelTutorial.unity
    guid: 1968e03893ec23c41b023800912a4195
  - enabled: 1
    path: Assets/Scenes/Level1.unity
    guid: 9fc0d4010bbf28b4594072e72b8655ab
  - enabled: 1
    path: Assets/Scenes/Level2.unity
    guid: 00388290f188eee40b355c1f8c663f4b
  m_configObjects: {}
